<!DOCTYPE svg PUBLIC "-//W3C//DTD SVG 1.1//EN" "http://www.w3.org/Graphics/SVG/1.1/DTD/svg11.dtd">

<!-- Uploaded to: SVG Repo, www.svgrepo.com, Transformed by: SVG Repo Mixer Tools -->
<svg width="512px" height="512px" viewBox="0 0 1024 1024" xmlns="http://www.w3.org/2000/svg" fill="#000000" stroke="#000000">

<g id="SVGRepo_bgCarrier" stroke-width="0"/>
<g id="SVGRepo_tracerCarrier" stroke-linecap="round" stroke-linejoin="round"/>

<g id="SVGRepo_iconCarrier">

<path fill="#ffffff" d="M512 64a448 448 0 1 1 0 896 448 448 0 0 1 0-896zm-55.808 536.384-99.52-99.584a38.4 38.4 0 1 0-54.336 54.336l126.72 126.72a38.272 38.272 0 0 0 54.336 0l262.4-262.464a38.4 38.4 0 1 0-54.272-54.336L456.192 600.384z"/>

</g>

</svg>